{
  "http": "GET https://mpapi.mallgroup.com/v1/products?page=1&page_size=1000&client_id=ClientId",
  "code": 200,
  "body": {
    "result": {
      "code": 200,
      "status": "OK"
    },
    "paging": {
      "total": 2000,
      "pages": 2,
      "size": 1000,
      "page": 1
    },
    "data": [
      {
        "id": "100000000111",
        "product_id": 100000000001,
        "title": "Some product title",
        "status": "A",
        "stage": "live",
        "in_stock": 0,
        "category_id": "MP001",
        "price": 5.6,
        "rrp": 29,
        "variants_count": 0,
        "has_variants": false
      }
    ]
  }

}

